{
  "prepare_queue": {
    "installed": [],
    "uninstalled": []
  },
  "config_munge": {
    "files": {}
  },
  "installed_plugins": {
    "cordova-plugin-device": {
      "PACKAGE_NAME": "info.konstantinschaper.pipes"
    },
    "cordova-plugin-dialogs": {
      "PACKAGE_NAME": "info.konstantinschaper.pipes"
    },
    "cordova-plugin-exclude-files": {
      "PACKAGE_NAME": "info.konstantinschaper.pipes"
    },
    "cordova-plugin-file": {
      "PACKAGE_NAME": "info.konstantinschaper.pipes"
    },
    "cordova-plugin-whitelist": {
      "PACKAGE_NAME": "info.konstantinschaper.pipes"
    }
  },
  "dependent_plugins": {
    "cordova-plugin-compat": {
      "PACKAGE_NAME": "info.konstantinschaper.pipes"
    }
  }
}